…
## Tidy data

``` r
mtcars_tidy = 
    mtcars %>% 
    as_tibble(rownames="car_model") %>% 
    mutate_at(vars(-car_model,- hp, -vs), scale) %>%
    gather(feature, value, -car_model, -hp, -vs)

mtcars_tidy
```

    ## # A tibble: 288 x 5
    ##    car_model            hp    vs feature  value
    ##    <chr>             <dbl> <dbl> <chr>    <dbl>
    ##  1 Mazda RX4           110     0 mpg      0.151
    ##  2 Mazda RX4 Wag       110     0 mpg      0.151
    ##  3 Datsun 710           93     1 mpg      0.450
    ##  4 Hornet 4 Drive      110     1 mpg      0.217
    ##  5 Hornet Sportabout   175     0 mpg     -0.231
    ##  6 Valiant             105     1 mpg     -0.330
    ##  7 Duster 360          245     0 mpg     -0.961
    ##  8 Merc 240D            62     1 mpg      0.715
    ##  9 Merc 230             95     1 mpg      0.450
    ## 10 Merc 280            123     1 mpg     -0.148
    ## # … with 278 more rows

## `ADD` versus `GET` versus `ONLY` modes

Every function takes a tidyfeatureomics structured data as input, and
(i) with action=“add” outputs the new information joint to the original
input data frame (default), (ii) with action=“get” the new information
with the element or feature relative informatin depending on what the
analysis is about, or (iii) with action=“only” just the new information.
For example, from this data set

``` r
  mtcars_tidy
```

    ## # A tibble: 288 x 5
    ##    car_model            hp    vs feature  value
    ##    <chr>             <dbl> <dbl> <chr>    <dbl>
    ##  1 Mazda RX4           110     0 mpg      0.151
    ##  2 Mazda RX4 Wag       110     0 mpg      0.151
    ##  3 Datsun 710           93     1 mpg      0.450
    ##  4 Hornet 4 Drive      110     1 mpg      0.217
    ##  5 Hornet Sportabout   175     0 mpg     -0.231
    ##  6 Valiant             105     1 mpg     -0.330
    ##  7 Duster 360          245     0 mpg     -0.961
    ##  8 Merc 240D            62     1 mpg      0.715
    ##  9 Merc 230             95     1 mpg      0.450
    ## 10 Merc 280            123     1 mpg     -0.148
    ## # … with 278 more rows
…
